{
	"code": 500,
	"msg": "数据请求失败",
	"data": {
		"pageIndex": 0,
		"pageSize": 10,
		"total": 69,
		"pageCount": 7,
		"offset": 0,
		"sort": "id",
		"order": "asc",
		"rows": [{
			"id": 72,
			"quotaCode": null,
			"quotaType": null,
			"categoryId": 0,
			"categoryName": "gheee",
			"factoryNo": "11",
			"originCountry": "89855",
			"spec": "132",
			"supplier": "1ee",
			"isDeleted": 0,
			"currency": "90999999",
			"unit": "uee1111111",
			"offerPrice": 1111.00,
			"offerTime": "0",
			"createTime": "2017-02-20 17:40:50",
			"createUser": "测试客户经理",
			"updateTime": "2017-03-17 11:47:27",
			"updateUser": "wangwei",
			"pics": "http://192.168.10.227:8080/pic/2017-03-01/9b6e635403ca4d8792c5149225c76b7482957.jpg"
		}, {
			"id": 73,
			"quotaCode": null,
			"quotaType": null,
			"categoryId": 0,
			"categoryName": "猪jjgfhj",
			"factoryNo": "0606",
			"originCountry": "巴西",
			"spec": "8657865",
			"supplier": "jfgj",
			"isDeleted": 0,
			"currency": "元7567",
			"unit": "千克",
			"offerPrice": 546757.00,
			"offerTime": "0",
			"createTime": "2017-03-13 09:24:31",
			"createUser": "测试决策",
			"updateTime": "2017-03-15 15:46:06",
			"updateUser": "wangwei",
			"pics": "http://192.168.10.227:8080/pic/2017-03-01/9b6e635403ca4d8792c5149225c76b7482957.jpg"
		}, {
			"id": 74,
			"quotaCode": null,
			"quotaType": null,
			"categoryId": 0,
			"categoryName": "猪整头",
			"factoryNo": "0606",
			"originCountry": "丹麦",
			"spec": "765",
			"supplier": "",
			"isDeleted": 0,
			"currency": "756756",
			"unit": "千克",
			"offerPrice": 5001.00,
			"offerTime": "0",
			"createTime": "2017-02-21 16:01:05",
			"createUser": "测试客户经理",
			"updateTime": "2017-03-15 15:26:42",
			"updateUser": "wangwei",
			"pics": "http://192.168.10.227:8080/pic/2017-03-01/9b6e635403ca4d8792c5149225c76b7482957.jpg"
		}, {
			"id": 76,
			"quotaCode": null,
			"quotaType": null,
			"categoryId": 0,
			"categoryName": "猪三叉骨",
			"factoryNo": "0606",
			"originCountry": "德国",
			"spec": "5KG",
			"supplier": null,
			"isDeleted": 0,
			"currency": "元",
			"unit": "千克",
			"offerPrice": 100.00,
			"offerTime": "0",
			"createTime": "2017-02-20 17:40:50",
			"createUser": "测试客户经理",
			"updateTime": "2017-02-20 17:52:05",
			"updateUser": "超级管理员",
			"pics": "http://192.168.10.227:8080/pic/2017-03-01/9b6e635403ca4d8792c5149225c76b7482957.jpg"
		}, {
			"id": 77,
			"quotaCode": null,
			"quotaType": null,
			"categoryId": 0,
			"categoryName": "猪整头",
			"factoryNo": "0606",
			"originCountry": "巴西",
			"spec": "5KG",
			"supplier": null,
			"isDeleted": 0,
			"currency": "元",
			"unit": "千克",
			"offerPrice": 1000.00,
			"offerTime": "0",
			"createTime": "2017-03-13 09:24:31",
			"createUser": "测试决策",
			"updateTime": "2017-03-13 09:24:31",
			"updateUser": "测试决策",
			"pics": "http://192.168.10.227:8080/pic/2017-03-01/9b6e635403ca4d8792c5149225c76b7482957.jpg"
		}, {
			"id": 78,
			"quotaCode": null,
			"quotaType": null,
			"categoryId": 0,
			"categoryName": "猪dsfg",
			"factoryNo": "0606",
			"originCountry": "丹麦",
			"spec": "45654",
			"supplier": "gdsg",
			"isDeleted": 0,
			"currency": "hfdhfd",
			"unit": "千克",
			"offerPrice": 500.00,
			"offerTime": "0",
			"createTime": "2017-02-21 16:01:05",
			"createUser": "测试客户经理",
			"updateTime": "2017-03-15 15:44:06",
			"updateUser": "wangwei",
			"pics": "http://192.168.10.227:8080/pic/2017-03-01/9b6e635403ca4d8792c5149225c76b7482957.jpg"
		}, {
			"id": 82,
			"quotaCode": null,
			"quotaType": null,
			"categoryId": 0,
			"categoryName": "猪整头",
			"factoryNo": "0606",
			"originCountry": "丹麦",
			"spec": "456",
			"supplier": "456456",
			"isDeleted": 0,
			"currency": "j;'jlj'",
			"unit": "千克",
			"offerPrice": 500000.00,
			"offerTime": "0",
			"createTime": "2017-02-21 16:01:05",
			"createUser": "测试客户经理",
			"updateTime": "2017-03-17 12:07:37",
			"updateUser": "wangwei",
			"pics": "http://192.168.10.227:8080/pic/2017-03-01/9b6e635403ca4d8792c5149225c76b7482957.jpg"
		}, {
			"id": 83,
			"quotaCode": null,
			"quotaType": null,
			"categoryId": 0,
			"categoryName": "23233",
			"factoryNo": "11906",
			"originCountry": "荷兰",
			"spec": "10000000",
			"supplier": "ddd",
			"isDeleted": 0,
			"currency": "rtyrtyrty",
			"unit": "qqq",
			"offerPrice": 1111.00,
			"offerTime": "0",
			"createTime": "2017-02-22 17:03:02",
			"createUser": "测试客户经理",
			"updateTime": "2017-03-17 11:47:13",
			"updateUser": "wangwei",
			"pics": "http://192.168.10.227:8080/pic/2017-03-01/9b6e635403ca4d8792c5149225c76b7482957.jpg"
		}, {
			"id": 84,
			"quotaCode": null,
			"quotaType": null,
			"categoryId": 0,
			"categoryName": "猪三叉骨",
			"factoryNo": "0606",
			"originCountry": "德国",
			"spec": "5KG",
			"supplier": null,
			"isDeleted": 0,
			"currency": "元",
			"unit": "千克",
			"offerPrice": 100.00,
			"offerTime": "0",
			"createTime": "2017-02-20 17:40:50",
			"createUser": "测试客户经理",
			"updateTime": "2017-02-20 17:52:05",
			"updateUser": "超级管理员",
			"pics": "http://192.168.10.227:8080/pic/2017-03-01/9b6e635403ca4d8792c5149225c76b7482957.jpg"
		}, {
			"id": 85,
			"quotaCode": null,
			"quotaType": null,
			"categoryId": 0,
			"categoryName": " 猪整头",
			"factoryNo": "0606",
			"originCountry": "巴西",
			"spec": "5KG",
			"supplier": null,
			"isDeleted": 0,
			"currency": "元",
			"unit": "千克",
			"offerPrice": 1000.00,
			"offerTime": "0",
			"createTime": "2017-03-13 09:24:31",
			"createUser": "测试决策",
			"updateTime": "2017-03-13 09:24:31",
			"updateUser": "测试决策",
			"pics": "http://192.168.10.227:8080/pic/2017-03-01/9b6e635403ca4d8792c5149225c76b7482957.jpg"
		}]
	},
	"map": null
}